component	engine
s	s
eng_bezelbok_kessel_runner	tieinterceptor_engine_s01:
eng_corellian_cruiser_grade_mk1	tieinterceptor_engine_s01:
eng_corellian_cruiser_grade_mk2	tieinterceptor_engine_s01:
eng_corellian_deluxe_cruiser_grade_mk1	tieinterceptor_engine_s01:
eng_crafted_incom_fusialthrust	tieinterceptor_engine_s01:
eng_crafted_novaldex_eventhorizon	tieinterceptor_engine_s01:
eng_crafted_qualdex_kyromaster	tieinterceptor_engine_s01:
eng_cygnus_hd3	tieinterceptor_engine_s01:
eng_cygnus_hd7	tieinterceptor_engine_s01:
eng_cygnus_hd8	tieinterceptor_engine_s01:
eng_cygnus_hd_5	tieinterceptor_engine_s01:
eng_cygnus_hdx	tieinterceptor_engine_s01:
eng_damorian_rx7	tieinterceptor_engine_s01:
eng_freitek_dual_jet	tieinterceptor_engine_s01:
eng_gallofree_advanced	tieinterceptor_engine_s01:
eng_gallofree_jx2	tieinterceptor_engine_s01:
eng_gallofree_jx3	tieinterceptor_engine_s01:
eng_h17_singularity	tieinterceptor_engine_s01:
eng_haor_chall_old_engine	tieinterceptor_engine_s01:
eng_incom_advanced	tieinterceptor_engine_s01:
eng_incom_advanced_fusialthrust	tieinterceptor_engine_s01:
eng_incom_e16	tieinterceptor_engine_s01:
eng_incom_elite	tieinterceptor_engine_s01:
eng_incom_fusialthrust	tieinterceptor_engine_s01:
eng_incom_fusialthrust_2	tieinterceptor_engine_s01:
eng_incom_heavy_fusialthrust	tieinterceptor_engine_s01:
eng_incom_improved_fusialthrust_2	tieinterceptor_engine_s01:
eng_incom_light_fusialthrust	tieinterceptor_engine_s01:
eng_koensayr_advanced	tieinterceptor_engine_s01:
eng_koensayr_dual_small_ionjet	tieinterceptor_engine_s01:
eng_koensayr_elite	tieinterceptor_engine_s01:
eng_koensayr_enhanced_dual_small_ionjet	tieinterceptor_engine_s01:
eng_koensayr_heavy_ionjet	tieinterceptor_engine_s01:
eng_koensayr_ionjet	tieinterceptor_engine_s01:
eng_koensayr_small_ionjet	tieinterceptor_engine_s01:
eng_koensayr_tuned_small_ionjet	tieinterceptor_engine_s01:
eng_kongar_defender	tieinterceptor_engine_s01:
eng_kse_a2x	tieinterceptor_engine_s01:
eng_kse_a5x	tieinterceptor_engine_s01:
eng_kse_a7x	tieinterceptor_engine_s01:
eng_kse_a8x	tieinterceptor_engine_s01:
eng_kse_advanced	tieinterceptor_engine_s01:
eng_kse_elite	tieinterceptor_engine_s01:
eng_kse_improved_a2x	tieinterceptor_engine_s01:
eng_kuat_a9x	tieinterceptor_engine_s01:
eng_kuat_f31	tieinterceptor_engine_s01:
eng_kuat_tc40	tieinterceptor_engine_s01:
eng_mandal_advanced	tieinterceptor_engine_s01:
eng_mandal_elite	tieinterceptor_engine_s01:
eng_mandal_enhanced_heavy	tieinterceptor_engine_s01:
eng_mandal_firestorm	tieinterceptor_engine_s01:
eng_mandal_firestorm_2	tieinterceptor_engine_s01:
eng_mandal_heavy	tieinterceptor_engine_s01:
eng_mandal_x37_vandal	tieinterceptor_engine_s01:
eng_mandal_x57_vandal	tieinterceptor_engine_s01:
eng_mission_reward_imperial_cygnus_megadrive	tieinterceptor_engine_s01:
eng_mission_reward_neutral_haor_chall_military	tieinterceptor_engine_s01:
eng_mission_reward_neutral_mandal_inferno	tieinterceptor_engine_s01:
eng_mission_reward_rebel_incom_military	tieinterceptor_engine_s01:
eng_mk1	tieinterceptor_engine_s01:
eng_mk2	tieinterceptor_engine_s01:
eng_mk3	tieinterceptor_engine_s01:
eng_mk4	tieinterceptor_engine_s01:
eng_mk5	tieinterceptor_engine_s01:
eng_moncal_charged_standard	tieinterceptor_engine_s01:
eng_moncal_enhanced_light	tieinterceptor_engine_s01:
eng_moncal_heavy	tieinterceptor_engine_s01:
eng_moncal_ifs32	tieinterceptor_engine_s01:
eng_moncal_ifs64	tieinterceptor_engine_s01:
eng_moncal_improved_heavy	tieinterceptor_engine_s01:
eng_moncal_light	tieinterceptor_engine_s01:
eng_moncal_standard	tieinterceptor_engine_s01:
eng_novaldex_advanced	tieinterceptor_engine_s01:
eng_novaldex_eventhorizon	tieinterceptor_engine_s01:
eng_novaldex_light_eventhorizon	tieinterceptor_engine_s01:
eng_novaldex_singularity	tieinterceptor_engine_s01:
eng_novaldex_x12	tieinterceptor_engine_s01:
eng_novaldex_x6	tieinterceptor_engine_s01:
eng_novaldex_x7	tieinterceptor_engine_s01:
eng_novaldex_x9	tieinterceptor_engine_s01:
eng_nubian_221	tieinterceptor_engine_s01:
eng_nubian_221_racing_mod	tieinterceptor_engine_s01:
eng_prototype	tieinterceptor_engine_s01:
eng_qualdex_a10	tieinterceptor_engine_s01:
eng_qualdex_a13	tieinterceptor_engine_s01:
eng_qualdex_advanced	tieinterceptor_engine_s01:
eng_qualdex_b10	tieinterceptor_engine_s01:
eng_qualdex_elite	tieinterceptor_engine_s01:
eng_qualdex_igt	tieinterceptor_engine_s01:
eng_qualdex_kyromaster	tieinterceptor_engine_s01:
eng_qualdex_small_kyromaster	tieinterceptor_engine_s01:
eng_quantum_ion_drive	tieinterceptor_engine_s01:
eng_rendili_demon_mk1	tieinterceptor_engine_s01:
eng_rendili_elite	tieinterceptor_engine_s01:
eng_rss_advanced	tieinterceptor_engine_s01:
eng_rss_elite	tieinterceptor_engine_s01:
eng_rss_imperial_skyrunner	tieinterceptor_engine_s01:
eng_rss_imperial_skyrunner_2	tieinterceptor_engine_s01:
eng_rss_imperial_skyrunner_3	tieinterceptor_engine_s01:
eng_rss_imperial_skyrunner_4	tieinterceptor_engine_s01:
eng_sds_imperial_1	tieinterceptor_engine_s01:
eng_sds_imperial_2	tieinterceptor_engine_s01:
eng_sds_limited_imperial_1	tieinterceptor_engine_s01:
eng_seinar_ps56	tieinterceptor_engine_s01:
eng_sfs_advanced	tieinterceptor_engine_s01:
eng_sfs_elite	tieinterceptor_engine_s01:
eng_sfs_imperial_1	tieinterceptor_engine_s01:
eng_sfs_imperial_2	tieinterceptor_engine_s01:
eng_sfs_imperial_3	tieinterceptor_engine_s01:
eng_sfs_imperial_4	tieinterceptor_engine_s01:
eng_sfs_imperial_5	tieinterceptor_engine_s01:
eng_sfs_modified_imperial_3	tieinterceptor_engine_s01:
eng_sfs_performance_imperial_1	tieinterceptor_engine_s01:
eng_sfs_tuned_imperial_2	tieinterceptor_engine_s01:
eng_sorosuub_l_337_ion_engine	tieinterceptor_engine_s01:
eng_sorosuub_tuned_l_337_ion_engine	tieinterceptor_engine_s01:
eng_sorosuub_u83r_ion_drive	tieinterceptor_engine_s01:
eng_subpro_light_engines	tieinterceptor_engine_s01:
eng_surronian_a2	tieinterceptor_engine_s01:
eng_surronian_a25	tieinterceptor_engine_s01:
eng_ubrikkian_n2	tieinterceptor_engine_s01:
eng_reward_kuat_elite	tieinterceptor_engine_s01:
eng_nova_01	tieinterceptor_engine_s01:
eng_orion_01	tieinterceptor_engine_s01:
collection_reward_engine_01_mk1	tieinterceptor_engine_s01:
collection_reward_engine_01_mk2	tieinterceptor_engine_s01:
collection_reward_engine_01_mk3	tieinterceptor_engine_s01:
collection_reward_engine_01_mk4	tieinterceptor_engine_s01:
collection_reward_engine_01_mk5	tieinterceptor_engine_s01:
eng_t86_shooting_star	tieinterceptor_engine_s01:
eng_kuat_m24	tieinterceptor_engine_s01:
